%YAML 1.1
%TAG !u! tag:unity3d.com,2011:
--- !u!74 &7400000
AnimationClip:
  m_ObjectHideFlags: 0
  m_PrefabParentObject: {fileID: 0}
  m_PrefabInternal: {fileID: 0}
  m_Name: AtackHeroAnimation
  serializedVersion: 6
  m_Legacy: 0
  m_Compressed: 0
  m_UseHighQualityCurve: 1
  m_RotationCurves: []
  m_CompressedRotationCurves: []
  m_EulerCurves: []
  m_PositionCurves:
  - curve:
      serializedVersion: 2
      m_Curve:
      - time: 0
        value: {x: 3, y: 1, z: 0}
        inSlope: {x: 0, y: 0, z: 0}
        outSlope: {x: 0, y: 0, z: 0}
        tangentMode: 0
      m_PreInfinity: 2
      m_PostInfinity: 2
      m_RotationOrder: 4
    path: 
  m_ScaleCurves: []
  m_FloatCurves: []
  m_PPtrCurves:
  - curve:
    - time: 0
      value: {fileID: 21300000, guid: ec263b074b725544eb2809fbf8f24067, type: 3}
    - time: 0.083333336
      value: {fileID: 21300002, guid: ec263b074b725544eb2809fbf8f24067, type: 3}
    - time: 0.16666667
      value: {fileID: 21300004, guid: ec263b074b725544eb2809fbf8f24067, type: 3}
    - time: 0.25
      value: {fileID: 21300006, guid: ec263b074b725544eb2809fbf8f24067, type: 3}
    - time: 0.33333334
      value: {fileID: 21300008, guid: ec263b074b725544eb2809fbf8f24067, type: 3}
    - time: 0.4166667
      value: {fileID: 21300010, guid: ec263b074b725544eb2809fbf8f24067, type: 3}
    - time: 0.5
      value: {fileID: 21300012, guid: ec263b074b725544eb2809fbf8f24067, type: 3}
    - time: 0.5833333
      value: {fileID: 21300014, guid: ec263b074b725544eb2809fbf8f24067, type: 3}
    - time: 0.6666666
      value: {fileID: 21300016, guid: ec263b074b725544eb2809fbf8f24067, type: 3}
    attribute: m_Sprite
    path: 
    classID: 212
    script: {fileID: 0}
  - curve:
    - time: 0
      value: {fileID: 21300000, guid: 3b3cbc31397137a4eb6cb66623988852, type: 3}
    - time: 0.083333336
      value: {fileID: 21300002, guid: 3b3cbc31397137a4eb6cb66623988852, type: 3}
    - time: 0.16666667
      value: {fileID: 21300004, guid: 3b3cbc31397137a4eb6cb66623988852, type: 3}
    - time: 0.25
      value: {fileID: 21300006, guid: 3b3cbc31397137a4eb6cb66623988852, type: 3}
    - time: 0.33333334
      value: {fileID: 21300008, guid: 3b3cbc31397137a4eb6cb66623988852, type: 3}
    - time: 0.4166667
      value: {fileID: 21300010, guid: 3b3cbc31397137a4eb6cb66623988852, type: 3}
    - time: 0.5
      value: {fileID: 21300012, guid: 3b3cbc31397137a4eb6cb66623988852, type: 3}
    - time: 0.5833333
      value: {fileID: 21300014, guid: 3b3cbc31397137a4eb6cb66623988852, type: 3}
    - time: 0.6666666
      value: {fileID: 21300016, guid: 3b3cbc31397137a4eb6cb66623988852, type: 3}
    attribute: m_Sprite
    path: ck_run_sword_spritesheet_0
    classID: 212
    script: {fileID: 0}
  m_SampleRate: 12
  m_WrapMode: 0
  m_Bounds:
    m_Center: {x: 0, y: 0, z: 0}
    m_Extent: {x: 0, y: 0, z: 0}
  m_ClipBindingConstant:
    genericBindings:
    - path: 0
      attribute: 0
      script: {fileID: 0}
      classID: 212
      customType: 23
      isPPtrCurve: 1
    - path: 4210154788
      attribute: 0
      script: {fileID: 0}
      classID: 212
      customType: 23
      isPPtrCurve: 1
    - path: 0
      attribute: 1
      script: {fileID: 0}
      classID: 4
      customType: 0
      isPPtrCurve: 0
    pptrCurveMapping:
    - {fileID: 21300000, guid: ec263b074b725544eb2809fbf8f24067, type: 3}
    - {fileID: 21300002, guid: ec263b074b725544eb2809fbf8f24067, type: 3}
    - {fileID: 21300004, guid: ec263b074b725544eb2809fbf8f24067, type: 3}
    - {fileID: 21300006, guid: ec263b074b725544eb2809fbf8f24067, type: 3}
    - {fileID: 21300008, guid: ec263b074b725544eb2809fbf8f24067, type: 3}
    - {fileID: 21300010, guid: ec263b074b725544eb2809fbf8f24067, type: 3}
    - {fileID: 21300012, guid: ec263b074b725544eb2809fbf8f24067, type: 3}
    - {fileID: 21300014, guid: ec263b074b725544eb2809fbf8f24067, type: 3}
    - {fileID: 21300016, guid: ec263b074b725544eb2809fbf8f24067, type: 3}
    - {fileID: 21300000, guid: 3b3cbc31397137a4eb6cb66623988852, type: 3}
    - {fileID: 21300002, guid: 3b3cbc31397137a4eb6cb66623988852, type: 3}
    - {fileID: 21300004, guid: 3b3cbc31397137a4eb6cb66623988852, type: 3}
    - {fileID: 21300006, guid: 3b3cbc31397137a4eb6cb66623988852, type: 3}
    - {fileID: 21300008, guid: 3b3cbc31397137a4eb6cb66623988852, type: 3}
    - {fileID: 21300010, guid: 3b3cbc31397137a4eb6cb66623988852, type: 3}
    - {fileID: 21300012, guid: 3b3cbc31397137a4eb6cb66623988852, type: 3}
    - {fileID: 21300014, guid: 3b3cbc31397137a4eb6cb66623988852, type: 3}
    - {fileID: 21300016, guid: 3b3cbc31397137a4eb6cb66623988852, type: 3}
  m_AnimationClipSettings:
    serializedVersion: 2
    m_AdditiveReferencePoseClip: {fileID: 0}
    m_AdditiveReferencePoseTime: 0
    m_StartTime: 0
    m_StopTime: 0.74999994
    m_OrientationOffsetY: 0
    m_Level: 0
    m_CycleOffset: 0
    m_HasAdditiveReferencePose: 0
    m_LoopTime: 0
    m_LoopBlend: 0
    m_LoopBlendOrientation: 0
    m_LoopBlendPositionY: 0
    m_LoopBlendPositionXZ: 0
    m_KeepOriginalOrientation: 0
    m_KeepOriginalPositionY: 1
    m_KeepOriginalPositionXZ: 0
    m_HeightFromFeet: 0
    m_Mirror: 0
  m_EditorCurves:
  - curve:
      serializedVersion: 2
      m_Curve:
      - time: 0
        value: 3
        inSlope: 0
        outSlope: 0
        tangentMode: 10
      m_PreInfinity: 2
      m_PostInfinity: 2
      m_RotationOrder: 4
    attribute: m_LocalPosition.x
    path: 
    classID: 4
    script: {fileID: 0}
  - curve:
      serializedVersion: 2
      m_Curve:
      - time: 0
        value: 1
        inSlope: 0
        outSlope: 0
        tangentMode: 10
      m_PreInfinity: 2
      m_PostInfinity: 2
      m_RotationOrder: 4
    attribute: m_LocalPosition.y
    path: 
    classID: 4
    script: {fileID: 0}
  - curve:
      serializedVersion: 2
      m_Curve:
      - time: 0
        value: 0
        inSlope: 0
        outSlope: 0
        tangentMode: 10
      m_PreInfinity: 2
      m_PostInfinity: 2
      m_RotationOrder: 4
    attribute: m_LocalPosition.z
    path: 
    classID: 4
    script: {fileID: 0}
  m_EulerEditorCurves: []
  m_HasGenericRootTransform: 1
  m_HasMotionFloatCurves: 0
  m_GenerateMotionCurves: 0
  m_Events:
  - time: 0
    functionName: SetOnClash
    data: 
    objectReferenceParameter: {fileID: 0}
    floatParameter: 0
    intParameter: 0
    messageOptions: 0
