%YAML 1.1
%TAG !u! tag:unity3d.com,2011:
--- !u!74 &7400000
AnimationClip:
  m_ObjectHideFlags: 0
  m_PrefabParentObject: {fileID: 0}
  m_PrefabInternal: {fileID: 0}
  m_Name: DeathEnemyAnimation
  serializedVersion: 6
  m_Legacy: 0
  m_Compressed: 0
  m_UseHighQualityCurve: 1
  m_RotationCurves: []
  m_CompressedRotationCurves: []
  m_EulerCurves: []
  m_PositionCurves: []
  m_ScaleCurves: []
  m_FloatCurves: []
  m_PPtrCurves:
  - curve:
    - time: 0
      value: {fileID: 21300000, guid: 58b5c83ae168d9b489f576a37a9efac9, type: 3}
    - time: 0.083333336
      value: {fileID: 21300002, guid: 58b5c83ae168d9b489f576a37a9efac9, type: 3}
    - time: 0.16666667
      value: {fileID: 21300004, guid: 58b5c83ae168d9b489f576a37a9efac9, type: 3}
    - time: 0.25
      value: {fileID: 21300006, guid: 58b5c83ae168d9b489f576a37a9efac9, type: 3}
    - time: 0.33333334
      value: {fileID: 21300008, guid: 58b5c83ae168d9b489f576a37a9efac9, type: 3}
    - time: 0.4166667
      value: {fileID: 21300010, guid: 58b5c83ae168d9b489f576a37a9efac9, type: 3}
    - time: 0.5
      value: {fileID: 21300012, guid: 58b5c83ae168d9b489f576a37a9efac9, type: 3}
    - time: 0.5833333
      value: {fileID: 21300014, guid: 58b5c83ae168d9b489f576a37a9efac9, type: 3}
    - time: 0.6666666
      value: {fileID: 21300016, guid: 58b5c83ae168d9b489f576a37a9efac9, type: 3}
    - time: 0.74999994
      value: {fileID: 21300018, guid: 58b5c83ae168d9b489f576a37a9efac9, type: 3}
    - time: 0.83333325
      value: {fileID: 21300020, guid: 58b5c83ae168d9b489f576a37a9efac9, type: 3}
    attribute: m_Sprite
    path: 
    classID: 212
    script: {fileID: 0}
  - curve:
    - time: 0
      value: {fileID: 21300000, guid: 3ae9682a2e05eb44aa68174c33fcbb40, type: 3}
    - time: 0.083333336
      value: {fileID: 21300002, guid: 3ae9682a2e05eb44aa68174c33fcbb40, type: 3}
    - time: 0.16666667
      value: {fileID: 21300004, guid: 3ae9682a2e05eb44aa68174c33fcbb40, type: 3}
    - time: 0.25
      value: {fileID: 21300006, guid: 3ae9682a2e05eb44aa68174c33fcbb40, type: 3}
    - time: 0.33333334
      value: {fileID: 21300008, guid: 3ae9682a2e05eb44aa68174c33fcbb40, type: 3}
    - time: 0.4166667
      value: {fileID: 21300010, guid: 3ae9682a2e05eb44aa68174c33fcbb40, type: 3}
    - time: 0.5
      value: {fileID: 21300012, guid: 3ae9682a2e05eb44aa68174c33fcbb40, type: 3}
    - time: 0.5833333
      value: {fileID: 21300014, guid: 3ae9682a2e05eb44aa68174c33fcbb40, type: 3}
    - time: 0.6666666
      value: {fileID: 21300016, guid: 3ae9682a2e05eb44aa68174c33fcbb40, type: 3}
    - time: 0.74999994
      value: {fileID: 21300018, guid: 3ae9682a2e05eb44aa68174c33fcbb40, type: 3}
    - time: 0.83333325
      value: {fileID: 21300020, guid: 3ae9682a2e05eb44aa68174c33fcbb40, type: 3}
    attribute: m_Sprite
    path: e_idle_light_spritesheet_0
    classID: 212
    script: {fileID: 0}
  - curve:
    - time: 0
      value: {fileID: 21300000, guid: 66e3f40ba5648d4479edbaa140cb61a5, type: 3}
    - time: 0.083333336
      value: {fileID: 21300002, guid: 66e3f40ba5648d4479edbaa140cb61a5, type: 3}
    - time: 0.16666667
      value: {fileID: 21300004, guid: 66e3f40ba5648d4479edbaa140cb61a5, type: 3}
    - time: 0.25
      value: {fileID: 21300006, guid: 66e3f40ba5648d4479edbaa140cb61a5, type: 3}
    - time: 0.33333334
      value: {fileID: 21300008, guid: 66e3f40ba5648d4479edbaa140cb61a5, type: 3}
    - time: 0.4166667
      value: {fileID: 21300010, guid: 66e3f40ba5648d4479edbaa140cb61a5, type: 3}
    - time: 0.5
      value: {fileID: 21300012, guid: 66e3f40ba5648d4479edbaa140cb61a5, type: 3}
    - time: 0.5833333
      value: {fileID: 21300014, guid: 66e3f40ba5648d4479edbaa140cb61a5, type: 3}
    - time: 0.6666666
      value: {fileID: 21300016, guid: 66e3f40ba5648d4479edbaa140cb61a5, type: 3}
    - time: 0.74999994
      value: {fileID: 21300018, guid: 66e3f40ba5648d4479edbaa140cb61a5, type: 3}
    - time: 0.83333325
      value: {fileID: 21300020, guid: 66e3f40ba5648d4479edbaa140cb61a5, type: 3}
    attribute: m_Sprite
    path: e_idle_tail_spritesheet_0
    classID: 212
    script: {fileID: 0}
  m_SampleRate: 12
  m_WrapMode: 0
  m_Bounds:
    m_Center: {x: 0, y: 0, z: 0}
    m_Extent: {x: 0, y: 0, z: 0}
  m_ClipBindingConstant:
    genericBindings:
    - path: 0
      attribute: 0
      script: {fileID: 0}
      classID: 212
      customType: 23
      isPPtrCurve: 1
    - path: 2237018335
      attribute: 0
      script: {fileID: 0}
      classID: 212
      customType: 23
      isPPtrCurve: 1
    - path: 3705322106
      attribute: 0
      script: {fileID: 0}
      classID: 212
      customType: 23
      isPPtrCurve: 1
    pptrCurveMapping:
    - {fileID: 21300000, guid: 58b5c83ae168d9b489f576a37a9efac9, type: 3}
    - {fileID: 21300002, guid: 58b5c83ae168d9b489f576a37a9efac9, type: 3}
    - {fileID: 21300004, guid: 58b5c83ae168d9b489f576a37a9efac9, type: 3}
    - {fileID: 21300006, guid: 58b5c83ae168d9b489f576a37a9efac9, type: 3}
    - {fileID: 21300008, guid: 58b5c83ae168d9b489f576a37a9efac9, type: 3}
    - {fileID: 21300010, guid: 58b5c83ae168d9b489f576a37a9efac9, type: 3}
    - {fileID: 21300012, guid: 58b5c83ae168d9b489f576a37a9efac9, type: 3}
    - {fileID: 21300014, guid: 58b5c83ae168d9b489f576a37a9efac9, type: 3}
    - {fileID: 21300016, guid: 58b5c83ae168d9b489f576a37a9efac9, type: 3}
    - {fileID: 21300018, guid: 58b5c83ae168d9b489f576a37a9efac9, type: 3}
    - {fileID: 21300020, guid: 58b5c83ae168d9b489f576a37a9efac9, type: 3}
    - {fileID: 21300000, guid: 3ae9682a2e05eb44aa68174c33fcbb40, type: 3}
    - {fileID: 21300002, guid: 3ae9682a2e05eb44aa68174c33fcbb40, type: 3}
    - {fileID: 21300004, guid: 3ae9682a2e05eb44aa68174c33fcbb40, type: 3}
    - {fileID: 21300006, guid: 3ae9682a2e05eb44aa68174c33fcbb40, type: 3}
    - {fileID: 21300008, guid: 3ae9682a2e05eb44aa68174c33fcbb40, type: 3}
    - {fileID: 21300010, guid: 3ae9682a2e05eb44aa68174c33fcbb40, type: 3}
    - {fileID: 21300012, guid: 3ae9682a2e05eb44aa68174c33fcbb40, type: 3}
    - {fileID: 21300014, guid: 3ae9682a2e05eb44aa68174c33fcbb40, type: 3}
    - {fileID: 21300016, guid: 3ae9682a2e05eb44aa68174c33fcbb40, type: 3}
    - {fileID: 21300018, guid: 3ae9682a2e05eb44aa68174c33fcbb40, type: 3}
    - {fileID: 21300020, guid: 3ae9682a2e05eb44aa68174c33fcbb40, type: 3}
    - {fileID: 21300000, guid: 66e3f40ba5648d4479edbaa140cb61a5, type: 3}
    - {fileID: 21300002, guid: 66e3f40ba5648d4479edbaa140cb61a5, type: 3}
    - {fileID: 21300004, guid: 66e3f40ba5648d4479edbaa140cb61a5, type: 3}
    - {fileID: 21300006, guid: 66e3f40ba5648d4479edbaa140cb61a5, type: 3}
    - {fileID: 21300008, guid: 66e3f40ba5648d4479edbaa140cb61a5, type: 3}
    - {fileID: 21300010, guid: 66e3f40ba5648d4479edbaa140cb61a5, type: 3}
    - {fileID: 21300012, guid: 66e3f40ba5648d4479edbaa140cb61a5, type: 3}
    - {fileID: 21300014, guid: 66e3f40ba5648d4479edbaa140cb61a5, type: 3}
    - {fileID: 21300016, guid: 66e3f40ba5648d4479edbaa140cb61a5, type: 3}
    - {fileID: 21300018, guid: 66e3f40ba5648d4479edbaa140cb61a5, type: 3}
    - {fileID: 21300020, guid: 66e3f40ba5648d4479edbaa140cb61a5, type: 3}
  m_AnimationClipSettings:
    serializedVersion: 2
    m_AdditiveReferencePoseClip: {fileID: 0}
    m_AdditiveReferencePoseTime: 0
    m_StartTime: 0
    m_StopTime: 0.91666657
    m_OrientationOffsetY: 0
    m_Level: 0
    m_CycleOffset: 0
    m_HasAdditiveReferencePose: 0
    m_LoopTime: 0
    m_LoopBlend: 0
    m_LoopBlendOrientation: 0
    m_LoopBlendPositionY: 0
    m_LoopBlendPositionXZ: 0
    m_KeepOriginalOrientation: 0
    m_KeepOriginalPositionY: 1
    m_KeepOriginalPositionXZ: 0
    m_HeightFromFeet: 0
    m_Mirror: 0
  m_EditorCurves: []
  m_EulerEditorCurves: []
  m_HasGenericRootTransform: 0
  m_HasMotionFloatCurves: 0
  m_GenerateMotionCurves: 0
  m_Events: []
